workshop\LocalDateTimeConverter.class
workshop\model\Address.class
workshop\model\CarAccessory.class
workshop\admin\validator\ControlPointValidator.class
workshop\home\service\impl\HomePageServiceImpl.class
workshop\model\PersonTypeEnum.class
workshop\model\Visit.class
workshop\home\dao\impl\HomePageDaoImpl.class
workshop\UploadImageServlet.class
workshop\home\model\LoginModel.class
workshop\model\OrderStatusEnum.class
workshop\owner\controller\OwnerController.class
workshop\client\service\ClientServiceInterface.class
workshop\model\Station.class
workshop\owner\validator\AccessoryValidator.class
workshop\home\service\HomePageService.class
workshop\owner\service\OwnerServiceInterface.class
workshop\owner\service\impl\OwnerServiceImpl$1.class
workshop\owner\service\impl\OwnerServiceImpl.class
workshop\MailSender.class
workshop\admin\validator\WorkshopValidator.class
workshop\model\CarService.class
workshop\LocalTimeConverter.class
workshop\home\model\RegistrationModel.class
workshop\model\Request.class
workshop\model\ItemTypeEnum.class
workshop\model\VehicleControlPointStatusEnum.class
workshop\admin\service\AdminService.class
workshop\client\service\impl\ClientServiceImpl$CalendarComparator.class
workshop\owner\service\impl\OwnerServiceImpl$CalendarComparator.class
workshop\home\dao\HomePageDao.class
workshop\model\WorkshopStatusEnum.class
workshop\admin\controller\AdminController.class
workshop\client\dao\ClientDaoInterface.class
workshop\owner\dao\OwnerDaoInterface.class
workshop\MailResponseTypeEnum.class
workshop\home\controller\HomePageController$1.class
workshop\home\controller\HomePageController.class
workshop\admin\dao\AdminDao.class
workshop\model\Order.class
workshop\model\VehicleControlPoint.class
workshop\admin\service\impl\AdminServiceImpl.class
workshop\model\Category.class
workshop\model\Person.class
workshop\client\controller\ClientController.class
workshop\client\dao\impl\ClientDaoImpl.class
workshop\model\VisitStatusEnum.class
workshop\owner\dao\impl\OwnerDaoImpl.class
workshop\model\Calendar.class
workshop\model\Workshop.class
workshop\client\service\impl\ClientServiceImpl.class
workshop\admin\dao\impl\AdminDaoImpl.class
workshop\home\validator\RegisterFormValidator.class
workshop\client\service\impl\ClientServiceImpl$1.class
workshop\model\RequestStatusEnum.class
workshop\owner\validator\ServiceValidator.class
workshop\MailSender$1.class
workshop\ImageServlet.class
